…
Calibration Curves
------------------

The default calibration curve for `calibrate()` is [Intcal13](http://www.radiocarbon.org/IntCal13.htm), but others are also incluced in this package (see `?intcal13`). The curve can be changed using the curve argument, which doesn't have to be the same for each element (it can be a list of actual curves, or a list of object names). To read in another curve, you can use the `read_14c()` function, which will read a `.14c` file from a path or URL.

``` r
read_14c("http://www.radiocarbon.org/IntCal13%20files/intcal13.14c")
#> <age_calibration_curve: 'intcal13'>
#> cal_age = cal_bp, measured_age = age_14C, measured_age_error = error
#> Radiocarbon Years BP => Calibrated BP
#> 
#> # A tibble: 5,141 x 5
#>    cal_bp age_14C error delta_14C sigma
#>     <dbl>   <dbl> <dbl>     <dbl> <dbl>
#>  1  50000   46401   274       313  44.8
#>  2  49980   46381   273       313  44.6
#>  3  49960   46362   271       313  44.3
#>  4  49940   46343   270       313  44.1
#>  5  49920   46324   269       313  44.0
#>  6  49900   46305   268       313  43.8
#>  7  49880   46286   267       312  43.6
#>  8  49860   46267   267       312  43.6
#>  9  49840   46249   266       312  43.5
#> 10  49820   46230   266       312  43.4
#> # ... with 5,131 more rows
```
…
